CategoryID,LinkID
7,84
2,278
2,22
5,246
5,42
5,234
6,81
5,46
5,237
2,89
4,294
2,14
5,236
6,252
6,253
5,263
5,99
4,264
3,264
5,232
7,266
5,47
3,59
6,194
6,196
6,197
6,198
6,199
6,200
6,201
5,251
2,251
3,268
3,139
4,107
3,26
38,268
2,268
5,146
5,38
2,90
5,269
37,269
3,2
4,397
5,182
4,273
5,392
3,160
7,279
2,48
6,33
6,72
6,152
6,73
4,173
7,177
7,144
2,53
2,54
2,55
2,25
6,70
6,34
6,35
6,36
2,161
2,264
6,74
6,193
6,195
7,83
4,11
7,85
7,87
7,134
7,143
2,137
5,27
5,111
5,149
7,331
3,286
2,212
2,23
2,100
4,333
7,240
5,295
5,322
5,292
6,171
6,208
4,272
4,328
4,262
3,322
2,21
2,289
5,290
4,291
5,45
3,327
2,93
4,375
2,91
3,231
5,358
6,322
7,244
4,151
4,309
5,31
7,215
2,368
2,156
2,322
5,238
4,16
5,332
3,28
4,349
4,334
7,334
2,334
4,286
4,350
5,350
3,350
6,350
37,350
7,350
38,350
2,350
2,351
4,352
4,353
5,41
2,102
2,95
4,95
5,95
3,95
6,95
37,95
5,354
2,130
4,7
6,140
6,141
5,410
5,375
3,113
4,376
5,376
37,376
4,377
4,6
5,40
4,67
4,369
5,206
6,398
7,398
4,400
7,400
4,401
5,401
4,388
5,388
6,388
7,388
2,388
4,389
5,389
3,389
6,389
7,389
2,389
4,390
2,390
4,391
5,391
2,391
5,115
5,395
5,396
6,397
4,403
5,403
4,402
3,402
6,402
7,404
4,9
4,408
5,408
3,408
6,408
37,408
7,408
5,61
4,423
3,423
6,423
2,423
4,10
4,18
5,411
5,50
4,219
4,413
3,413
37,413
7,413
2,413
4,414
6,414
37,414
7,414
2,414
4,415
5,415
3,415
6,415
37,415
7,415
4,416
3,418
3,419
4,221
4,420
5,420
6,420
37,420
7,420
5,421
3,422
2,24
4,8
5,44
4,387
5,387
3,387
6,387
37,387
7,387
2,387
5,368
4,211
4,39
4,275
7,288
5,98
4,409
5,409
5,162
6,178
6,179
6,180
6,205
3,409
2,30
6,409
37,409
7,409
5,423
4,4
2,60
4,68
6,104
6,105
6,106
5,145
5,163
3,176
3,203
2,209
5,213
4,17
5,29
5,32
6,51
6,62
6,64
6,65
5,82
2,103
6,117
4,154
4,218
7,223
5,228
3,224
3,230
2,92
2,94
6,181
4,37
4,207
4,58
6,158
6,165
4,229
4,172
6,57
4,239
7,245
7,243
4,241
4,394
4,159
5,260
4,276
5,261
7,326
5,293
5,265
6,265
2,265
6,282
4,393
5,393
3,393
6,393
7,393
2,393
5,394
7,394
4,69
4,3
5,110
4,132
4,210
4,204
5,43
5,248
5,277
6,138
5,311
5,148
7,313
4,217
4,330
5,330
5,114
4,20
6,285
2,330
6,283
6,281
6,284
5,112
3,356
37,356
4,323
3,323
6,323
37,323
2,96
4,1
4,174
4,417
7,417