subAudienceID,LinkID
3,174
3,170
4,295
7,197
4,100
5,100
4,395
5,395
2,331
4,331
7,177
2,278
3,278
4,49
5,49
5,90
7,90
5,295
2,333
3,333
4,332
2,332
7,171
1,2
4,289
7,289
2,290
4,290
5,290
4,330
2,330
1,309
3,309
1,291
1,292
2,292
3,292
4,292
5,292
4,93
7,93
7,322
3,330
5,330
5,333
1,244
2,244
3,244
4,244
5,244
7,244
4,309
5,309
1,333
3,332
5,332
1,31
7,215
1,286
4,156
7,156
1,47
2,47
3,47
4,47
5,47
7,47
7,196
1,327
3,327
1,332
7,333
4,334
2,334
3,334
5,334
1,334
7,334
4,349
5,349
7,143
7,87
4,350
2,350
3,350
5,350
1,350
1,352
2,352
3,352
1,353
2,353
3,353
7,38
4,354
5,354
2,4
4,392
1,387
1,107
3,107
7,140
7,141
4,358
5,358
4,359
5,359
4,278
7,278
4,375
5,375
4,376
2,376
3,376
5,376
1,376
7,376
2,377
3,377
1,377
7,398
4,400
2,400
3,400
5,400
1,400
1,388
2,388
3,388
4,388
5,388
7,388
1,389
2,389
3,389
4,389
5,389
7,389
1,390
2,390
3,390
4,390
5,390
7,390
2,391
4,391
5,391
2,387
4,396
5,396
7,174
3,397
5,397
1,397
7,403
4,402
2,402
3,402
5,402
1,402
7,402
1,404
2,404
3,404
4,404
5,404
7,404
4,408
2,408
3,408
5,408
1,408
7,408
4,423
2,423
3,423
1,423
7,25
3,387
2,413
4,413
5,413
1,414
2,414
3,414
4,414
5,414
7,414
4,415
5,415
4,416
4,387
5,387
7,387
1,211
1,39
1,275
4,417
2,417
3,417
5,417
1,417
7,417
2,418
1,418
3,419
1,419
4,420
2,420
3,420
5,420
1,420
7,420
4,421
5,421
2,422
1,422
2,275
3,275
4,431
2,431
5,431
1,431
7,48
7,72
7,74
3,418
7,84
7,85
7,152
1,409
2,409
7,161
7,183
7,193
7,194
7,195
3,409
4,409
7,198
7,199
7,200
7,201
4,71
3,71
1,71
5,162
7,33
7,35
7,53
7,55
7,70
5,409
7,134
7,409
7,144
1,153
7,158
7,73
4,4
7,147
4,15
4,92
4,94
2,71
5,71
7,71
4,225
3,225
1,225
7,34
7,54
7,83
7,117
3,153
1,264
2,264
7,92
7,94
7,165
3,264
1,216
2,216
3,216
4,216
5,216
7,216
2,225
5,225
7,225
1,132
3,132
1,251
2,251
3,251
4,251
5,251
1,268
2,268
3,268
4,268
5,268
7,268
4,269
5,269
3,270
1,270
3,271
1,271
4,394
2,276
3,276
1,276
1,293
2,293
3,293
4,293
5,293
7,293
2,326
4,326
5,326
7,326
4,265
5,265
4,393
2,393
3,393
5,393
1,393
7,393
2,394
3,394
5,394
1,394
7,394
1,272
2,3
4,3
7,138
1,405
4,313
2,313
5,313
2,405
3,405
4,405
5,405
7,405
4,323
3,323
5,323
1,323
7,323
4,20
4,356
3,356
5,356
1,356
1,1
3,1
4,1