subCategoryID,LinkID
23,400
0,223
23,229
10,234
21,331
23,9
6,392
23,151
18,17
6,64
11,246
12,32
14,34
14,36
13,30
21,84
1,172
9,225
6,42
5,50
22,53
10,236
19,224
5,68
22,70
1,81
21,83
21,85
17,93
0,181
23,101
22,103
1,67
8,114
22,130
21,134
18,139
21,143
1,146
5,232
18,160
14,161
6,49
9,73
18,176
9,178
22,180
8,28
5,177
1,294
10,237
10,235
13,60
6,61
22,55
17,14
10,27
1,140
5,263
6,45
18,249
12,99
23,207
1,241
14,105
23,290
0,154
1,333
21,279
16,152
4,264
6,164
1,174
1,252
15,193
15,195
15,197
15,199
15,201
13,209
9,214
9,286
1,211
9,253
5,18
1,210
9,272
6,46
16,33
14,35
23,37
6,38
1,291
8,295
6,358
22,24
18,26
12,31
21,266
5,40
22,54
18,59
22,62
6,65
19,231
16,72
15,74
8,82
6,359
15,194
17,92
17,94
1,273
22,102
24,182
14,104
14,106
1,262
1,117
1,21
4,115
15,196
1,141
16,71
15,198
10,149
5,144
6,145
1,147
5,16
1,107
17,289
15,200
17,156
1,15
5,163
9,165
24,96
23,11
5,175
4,202
12,98
4,251
8,349
20,162
15,183
6,269
18,270
18,271
9,268
18,203
21,334
6,292
9,179
5,173
18,205
11,213
10,111
0,218
9,220
1,158
23,10
18,47
22,25
21,87
5,238
24,137
1,420
6,228
19,230
5,351
4,7
7,216
17,91
24,212
6,206
1,352
5,239
21,244
1,328
1,309
21,215
6,265
1,353
18,327
16,322
17,278
6,332
20,41
24,95
6,354
8,354
4,6
23,8
1,375
6,375
18,113
1,377
6,44
16,398
1,388
6,388
23,388
9,388
21,388
1,389
23,389
1,390
23,390
4,392
6,395
17,395
6,396
23,397
19,397
18,397
20,397
9,398
14,398
21,398
21,400
6,401
1,403
6,403
23,403
9,404
21,404
1,408
6,408
16,408
8,408
23,408
21,408
1,423
9,423
21,387
23,387
1,39
1,413
8,413
23,413
9,413
5,413
22,413
17,413
12,413
20,413
23,414
9,414
5,414
12,414
21,414
1,415
6,415
8,415
23,415
11,415
23,416
1,275
6,417
23,417
21,417
18,418
6,420
24,420
23,420
9,420
22,420
17,420
14,420
6,421
23,422
21,288
18,419
1,409
6,409
16,409
9,409
21,409
23,423
1,4
18,29
1,58
21,245
21,243
21,242
21,240
1,159
12,260
25,282
5,261
21,326
25,329
6,293
9,208
1,393
23,393
6,394
23,394
23,69
1,3
4,153
1,132
23,3
11,110
1,204
8,43
11,248
9,170
4,277
18,274
22,100
1,276
17,90
9,171
1,138
25,285
12,148
25,283
25,281
25,284
8,112
1,356
6,108
21,313
4,330
22,323
6,356
8,356
1,20
1,1