"AddressID","AddressName","Address1","Address2","City","State","ZipCode","Country"
"1","Main Campus","One UTSA Circle","null","San Antonio","TX","78249-1644","US"
"2","Downtown Campus","501 Cesar E. Chavez  Blvd.","null","San Antonio","TX","78207","US"
"3","Institute of Texan Cultures","801 Cesar E. Chavez  Blvd.","null","San Antonio","TX","78205","US"
"4","University Heights","5723 University Heights Blvd","null","San Antonio","TX","78249","US"
"5","Kelly USA","145 Duncan Drive","Suite 200","San Antonio","TX","78226","US"
"6","Center for Infrastructure Assurance and Security","4350 Lockhill-Selma","Suite 100","San Antonio","TX","78249","US"
"7","Chisholm Hall","6960 North Loop 1604 West","null","San Antonio","TX","78249","US"
"8","University Oaks","6685 UTSA Blvd","null","San Antonio","TX","78249","US"