"subCategoryLinkRelations","subCategoryID","LinkID"
"","1","39"
"","0","223"
"","23","229"
"","9","215"
"","4","7"
"","23","9"
"","23","11"
"","1","20"
"","18","17"
"","6","64"
"","18","29"
"","12","32"
"","14","34"
"","14","36"
"","13","30"
"","1","3"
"","1","172"
"","9","225"
"","6","42"
"","5","50"
"","22","53"
"","1","58"
"","19","224"
"","5","68"
"","22","70"
"","1","81"
"","21","83"
"","21","85"
"","17","93"
"","0","181"
"","23","101"
"","22","103"
"","1","67"
"","8","114"
"","22","130"
"","21","134"
"","18","139"
"","21","143"
"","1","146"
"","4","153"
"","17","91"
"","14","161"
"","9","170"
"","9","73"
"","18","176"
"","9","178"
"","22","180"
"","8","28"
"","23","69"
"","0","217"
"","19","231"
"","6","49"
"","13","60"
"","6","61"
"","22","55"
"","24","95"
"","10","27"
"","1","140"
"","6","44"
"","6","45"
"","11","47"
"","1","1"
"","23","207"
"","24","96"
"","14","105"
"","11","110"
"","0","154"
"","5","177"
"","0","219"
"","16","152"
"","5","173"
"","6","164"
"","9","174"
"","1","182"
"","15","193"
"","15","195"
"","15","197"
"","15","199"
"","15","201"
"","13","209"
"","9","214"
"","1","138"
"","1","211"
"","5","232"
"","9","171"
"","9","210"
"","17","14"
"","12","31"
"","16","33"
"","14","35"
"","23","37"
"","6","38"
"","20","41"
"","8","43"
"","17","90"
"","22","24"
"","18","26"
"","6","46"
"","22","25"
"","5","40"
"","22","54"
"","18","59"
"","22","62"
"","6","65"
"","23","151"
"","16","72"
"","15","74"
"","8","82"
"","21","84"
"","13","89"
"","17","92"
"","17","94"
"","22","100"
"","22","102"
"","8","112"
"","14","104"
"","14","106"
"","6","108"
"","1","117"
"","18","113"
"","4","115"
"","1","132"
"","1","141"
"","16","71"
"","24","137"
"","10","149"
"","5","144"
"","6","145"
"","1","147"
"","5","16"
"","1","107"
"","9","2"
"","5","234"
"","17","156"
"","1","15"
"","5","163"
"","9","165"
"","1","204"
"","1","4"
"","5","175"
"","4","202"
"","12","98"
"","12","99"
"","18","160"
"","20","162"
"","15","183"
"","15","194"
"","15","196"
"","15","198"
"","15","200"
"","18","203"
"","6","206"
"","9","208"
"","9","179"
"","1","159"
"","18","205"
"","11","213"
"","10","111"
"","0","218"
"","9","220"
"","1","158"
"","23","10"
"","5","18"
"","4","6"
"","23","8"
"","21","87"
"","24","212"
"","0","221"
"","6","228"
"","19","230"
"","12","148"
"","1","21"
"","7","216"